Entrega5 AD: MDS
…
Con el resultado del análisis de MDS, creamos el siguiente data frame añadiendo una nueva variable tipo factor que nos indique a que phylum pertenece (14 niveles).

tibble_vh.mds = as.tibble(vh.mds); tibble_vh.mds

Warning: `as.tibble()` was deprecated in tibble 2.0.0.
ℹ Please use `as_tibble()` instead.
ℹ The signature and semantics have changed, see `?as_tibble`.

Warning: The `x` argument of `as_tibble.matrix()` must have unique column names if
`.name_repair` is omitted as of tibble 2.0.0.
ℹ Using compatibility `.name_repair`.
ℹ The deprecated feature was likely used in the tibble package.
  Please report the issue at <https://github.com/tidyverse/tibble/issues>.

# A tibble: 370 × 2
       V1       V2
    <dbl>    <dbl>
 1 -0.101 -0.00874
 2 -0.101 -0.00874
 3 -0.101 -0.00874
 4 -0.101 -0.00874
 5 -0.101 -0.00874
 6 -0.101 -0.00874
 7 -0.101 -0.00874
 8 -0.101 -0.00874
 9 -0.101 -0.00874
10 -0.101 -0.00874
# ℹ 360 more rows
…
SP (Shortest-Path)

Convertimos la matriz “ANIMALS-matrixSP” en una matriz de distancias.

dist_SP <- sqrt(2*(1-datos_SP))

Tenemos la lista de animales con su phylum y tres matrices de distancias o similitudes. Estas matrices son cuadradas de dimensión 370, que sería el número de observaciones del dataset original.

sp.mds<-cmdscale(datos_SP,k=2)

Con el resultado del análisis de MDS, creamos el siguiente data frame añadiendo una nueva variable tipo factor que nos indique a que phylum pertenece (14 niveles).

tibble_sp.mds = as.tibble(sp.mds); tibble_sp.mds

# A tibble: 370 × 2
         V1        V2
      <dbl>     <dbl>
 1 -6.67e-9  0       
 2 -2.39e-8 -3.32e- 8
 3 -1.11e-8 -4.89e- 9
 4 -7.46e-9  3.87e-10
 5 -1.45e-8 -6.50e- 9
 6 -1.11e-8 -7.83e- 9
 7 -1.23e-8 -6.72e- 9
 8 -1.11e-8 -5.45e- 9
 9 -7.46e-9  3.87e-10
10 -9.36e-9 -6.91e-10
# ℹ 360 more rows
…
